day05_checker.vcd
$date
  ...
$end
$version
  Hardcaml
$end
$comment
  Hardware design in ocaml
$end
$timescale 1ns $end
$scope module inputs $end
$var wire 1 ! clock $end
$var wire 1 " reset $end
$var wire 1 # valid $end
$var wire 1 $ clear $end
$var wire 64 & ingredient_id $end
$upscope $end
$scope module outputs $end
$var wire 1 ' is_fresh $end
$var wire 64 ( total_count $end
$upscope $end
$scope module various $end
$upscope $end
$enddefinitions $end
$dumpvars
x!
x"
x#
x$
bxxxxxxxxxxxxxxxxxxxxxxxxxxxxxxxxxxxxxxxxxxxxxxxxxxxxxxxxxxxxxxxx &
x'
bxxxxxxxxxxxxxxxxxxxxxxxxxxxxxxxxxxxxxxxxxxxxxxxxxxxxxxxxxxxxxxxx (
$end
#0
1!
0"
0#
1$
b0000000000000000000000000000000000000000000000000000000000000000 &
0'
b0000000000000000000000000000000000000000000000000000000000000000 (
#5
0!
#10
1!
0"
0$
#15
0!
#20
1!
0"
1#
b0000000000000001101001111000000101011010111001011001001100001111 &
1'
#25
0!
#30
1!
0"
b0000000000000001101110011100001111111100000010010110111010110000 &
0'
b0000000000000000000000000000000000000000000000000000000000000001 (
#35
0!
#40
1!
0"
b0000000000000001101100001010001101011000101011011000110011101110 &
1'
#45
0!
#50
1!
0"
b0000000000000000101100101000100011001100000011001001010011111000 &
b0000000000000000000000000000000000000000000000000000000000000010 (
#55
0!
#60
1!
0"
b0000000000000001001010000000101001100011001100111110100100110011 &
b0000000000000000000000000000000000000000000000000000000000000011 (
#65
0!
#70
1!
0"
b0000000000000000101101100100000100110100110101110111011011001000 &
0'
b0000000000000000000000000000000000000000000000000000000000000100 (
#75
0!
#80
1!
0"
b0000000000000000000100000101001000011011010000100111111001101000 &
1'
#85
0!
#90
1!
0"
b0000000000000001001000100010001001110110100011001110110101101111 &
b0000000000000000000000000000000000000000000000000000000000000101 (
#95
0!
#100
1!
0"
b0000000000000000100010010101011101011100111111000111010001101000 &
0'
b0000000000000000000000000000000000000000000000000000000000000110 (
#105
0!
#110
1!
0"
b0000000000000001001011001101001110101100111011100001100001110110 &
1'
#115
0!
#120
1!
0"
b0000000000000001111010110011100110001011010000110010110010111101 &
b0000000000000000000000000000000000000000000000000000000000000111 (
#125
0!
#130
1!
0"
b0000000000000000001100110111010110001011011101000000101101001010 &
b0000000000000000000000000000000000000000000000000000000000001000 (
#135
0!
#140
1!
0"
b0000000000000001000101010011110100101010000010111011010100101001 &
b0000000000000000000000000000000000000000000000000000000000001001 (
#145
0!
#150
1!
0"
b0000000000000000110001101111110111110000110010010111111110000110 &
b0000000000000000000000000000000000000000000000000000000000001010 (
#155
0!
#160
1!
0"
b0000000000000001111111000110001110011000110010010101110100011000 &
b0000000000000000000000000000000000000000000000000000000000001011 (
#165
0!
#170
1!
0"
b0000000000000001101001010011101110000000000111000110010100010100 &
0'
b0000000000000000000000000000000000000000000000000000000000001100 (
#175
0!
#180
1!
0"
b0000000000000000101111000110001010111111110001100010011001000010 &
1'
#185
0!
#190
1!
0"
b0000000000000000000110010010111010100100111100111100100001011100 &
b0000000000000000000000000000000000000000000000000000000000001101 (
#195
0!
#200
1!
0"
b0000000000000001011101011001101111111000000011101011010011101100 &
0'
b0000000000000000000000000000000000000000000000000000000000001110 (
#205
0!
#210
1!
0"
b0000000000000000111100101010101011100100001110111110010111111010 &
1'
#215
0!
#220
1!
0"
b0000000000000001001111011110100111110001000010100000011111111110 &
b0000000000000000000000000000000000000000000000000000000000001111 (
#225
0!
#230
1!
0"
b0000000000000001100111000010010111010101111010010010100001000001 &
0'
b0000000000000000000000000000000000000000000000000000000000010000 (
#235
0!
#240
1!
0"
b0000000000000001100100000100101001100110001111011100001001111101 &
1'
#245
0!
#250
1!
0"
b0000000000000000110011001001001111001001011010101110110010010110 &
b0000000000000000000000000000000000000000000000000000000000010001 (
#255
0!
#260
1!
0"
b0000000000000001101000001011100010100111111111110110111110100100 &
b0000000000000000000000000000000000000000000000000000000000010010 (
#265
0!
#270
1!
0"
b0000000000000000110010100011101100000011000110101000010111110011 &
b0000000000000000000000000000000000000000000000000000000000010011 (
#275
0!
#280
1!
0"
b0000000000000001010111101001101101101110100110101101110011000001 &
b0000000000000000000000000000000000000000000000000000000000010100 (
#285
0!
#290
1!
0"
b0000000000000000100100010100011111010111011101001000111010101100 &
b0000000000000000000000000000000000000000000000000000000000010101 (
#295
0!
#300
1!
0"
b0000000000000001100010111011010101001010011001111000010001000011 &
b0000000000000000000000000000000000000000000000000000000000010110 (
#305
0!
#310
1!
0"
b0000000000000001001101000101110100010011010010101101010011110001 &
b0000000000000000000000000000000000000000000000000000000000010111 (
#315
0!
#320
1!
0"
b0000000000000000011000100111110100101000100100111001110111000010 &
0'
b0000000000000000000000000000000000000000000000000000000000011000 (
#325
0!
#330
1!
0"
b0000000000000000001110011000101011110110011100010000110110110101 &
1'
#335
0!
#340
1!
0"
b0000000000000000000001100001010010010001011011010100010011001001 &
b0000000000000000000000000000000000000000000000000000000000011001 (
#345
0!
#350
1!
0"
b0000000000000001111111011111011010111001101110011010000000100110 &
b0000000000000000000000000000000000000000000000000000000000011010 (
#355
0!
#360
1!
0"
b0000000000000001100101110100111101101000001011110110010101110010 &
b0000000000000000000000000000000000000000000000000000000000011011 (
#365
0!
#370
1!
0"
b0000000000000001010111010111101100100000111101011110011100000000 &
b0000000000000000000000000000000000000000000000000000000000011100 (
#375
0!
#380
1!
0"
b0000000000000001011111000111010100011000011001111101011101000100 &
b0000000000000000000000000000000000000000000000000000000000011101 (
#385
0!
#390
1!
0"
b0000000000000001110111101001101100101010111110010000110101101101 &
b0000000000000000000000000000000000000000000000000000000000011110 (
#395
0!
#400
1!
0"
b0000000000000001001000010110001101011101001101100010100000111100 &
b0000000000000000000000000000000000000000000000000000000000011111 (
#405
0!
#410
1!
0"
b0000000000000000100111100011010111100000110000011010110110011110 &
b0000000000000000000000000000000000000000000000000000000000100000 (
#415
0!
#420
1!
0"
b0000000000000000010001011110110101011001101000000110101010100001 &
b0000000000000000000000000000000000000000000000000000000000100001 (
#425
0!
#430
1!
0"
b0000000000000000011111100110000010110110010001011101111010000111 &
b0000000000000000000000000000000000000000000000000000000000100010 (
#435
0!
#440
1!
0"
b0000000000000000001000101111011110010110101111011100001000001111 &
b0000000000000000000000000000000000000000000000000000000000100011 (
#445
0!
#450
1!
0"
b0000000000000000000000101011100011100010001001001110100000010101 &
b0000000000000000000000000000000000000000000000000000000000100100 (
#455
0!
#460
1!
0"
b0000000000000000010100010011111001101001011001001000110011001101 &
0'
b0000000000000000000000000000000000000000000000000000000000100101 (
#465
0!
#470
1!
0"
b0000000000000001000001011000111000100110000001001110011110000011 &
1'
#475
0!
#480
1!
0"
b0000000000000000111001100111010010100110101100001011010001010011 &
b0000000000000000000000000000000000000000000000000000000000100110 (
#485
0!
#490
1!
0"
b0000000000000000001110111101101111110100011101100110101111011010 &
b0000000000000000000000000000000000000000000000000000000000100111 (
#495
0!
#500
1!
0"
b0000000000000000100000101010101001000011101110000011000101110100 &
b0000000000000000000000000000000000000000000000000000000000101000 (
#505
0!
#510
1!
0"
b0000000000000000001100111101010111100101010111000010001001100011 &
b0000000000000000000000000000000000000000000000000000000000101001 (
#515
0!
#520
1!
0"
b0000000000000000100100000101001101001000001011100111110111000010 &
b0000000000000000000000000000000000000000000000000000000000101010 (
#525
0!
#530
1!
0"
b0000000000000001000111110001011100000100101100000011001001011110 &
b0000000000000000000000000000000000000000000000000000000000101011 (
#535
0!
#540
1!
0"
b0000000000000000100011111101000100101000000101000000000011110010 &
b0000000000000000000000000000000000000000000000000000000000101100 (
#545
0!
#550
1!
0"
b0000000000000000110010100001010100001101111111111000010111010101 &
b0000000000000000000000000000000000000000000000000000000000101101 (
#555
0!
#560
1!
0"
b0000000000000000111101111111001011001110001001101000000011111011 &
0'
b0000000000000000000000000000000000000000000000000000000000101110 (
#565
0!
#570
1!
0"
b0000000000000001111011111101100101101010010100010100000000101001 &
#575
0!
#580
1!
0"
b0000000000000001010101100010001110100011001101011100011000111101 &
1'
#585
0!
#590
1!
0"
b0000000000000000110111001111010110010001101001110010001001110101 &
b0000000000000000000000000000000000000000000000000000000000101111 (
#595
0!
#600
1!
0"
b0000000000000001101011000111001100111010011010000011011100001111 &
b0000000000000000000000000000000000000000000000000000000000110000 (
#605
0!
#610
1!
0"
b0000000000000000011101100011001111100010100010010100010100010111 &
0'
b0000000000000000000000000000000000000000000000000000000000110001 (
#615
0!
#620
1!
0"
b0000000000000000101111001111100101000010101111010110100010110101 &
1'
#625
0!
#630
1!
0"
b0000000000000000111001011001111100110000101111100101101000100110 &
b0000000000000000000000000000000000000000000000000000000000110010 (
#635
0!
#640
1!
0"
b0000000000000000111011110001110010101001000110010001011100100100 &
b0000000000000000000000000000000000000000000000000000000000110011 (
#645
0!
#650
1!
0"
b0000000000000001111001011101111111001010011101100011010101010001 &
0'
b0000000000000000000000000000000000000000000000000000000000110100 (
#655
0!
#660
1!
0"
b0000000000000001011110000110101110100010000100111001010100001001 &
1'
#665
0!
#670
1!
0"
b0000000000000000101100110011010000000010101010000111000111000111 &
b0000000000000000000000000000000000000000000000000000000000110101 (
#675
0!
#680
1!
0"
b0000000000000000111111100011111110100000001110111101100111101100 &
0'
b0000000000000000000000000000000000000000000000000000000000110110 (
#685
0!
#690
1!
0"
b0000000000000000001010000010100001011111100000101011101001001000 &
1'
#695
0!
#700
1!
0"
b0000000000000000000101110010111011110100011100110101000001110000 &
b0000000000000000000000000000000000000000000000000000000000110111 (
#705
0!
#710
1!
0"
b0000000000000001100111101100010111100100000110001000111100110000 &
b0000000000000000000000000000000000000000000000000000000000111000 (
#715
0!
#720
1!
0"
b0000000000000001101000101100011111111110010011000000101110100101 &
b0000000000000000000000000000000000000000000000000000000000111001 (
#725
0!
#730
1!
0"
b0000000000000000111101011000101100110101101101010110011011111111 &
0'
b0000000000000000000000000000000000000000000000000000000000111010 (
#735
0!
#740
1!
0"
b0000000000000000000101110000011101010110101010111101011001000101 &
1'
#745
0!
#750
1!
0"
b0000000000000000111110000110010110011101100110110011110011010011 &
b0000000000000000000000000000000000000000000000000000000000111011 (
#755
0!
#760
1!
0"
b0000000000000000100010001001001001000100110001000010011011010110 &
0'
b0000000000000000000000000000000000000000000000000000000000111100 (
#765
0!
#770
1!
0"
b0000000000000000011001001101011000111010011101110110111010111101 &
#775
0!
#780
1!
0"
b0000000000000001001000101000001011100110111100111110100010011101 &
1'
#785
0!
#790
1!
0"
b0000000000000001001110100111001010000000011101110010110111010010 &
b0000000000000000000000000000000000000000000000000000000000111101 (
#795
0!
#800
1!
0"
b0000000000000001000101100001111000001110001110001110001000110111 &
b0000000000000000000000000000000000000000000000000000000000111110 (
#805
0!
#810
1!
0"
b0000000000000000100001110100000100100110100011100110001101001011 &
b0000000000000000000000000000000000000000000000000000000000111111 (
#815
0!
#820
1!
0"
b0000000000000001110001100001101100010000010101000110001101100000 &
b0000000000000000000000000000000000000000000000000000000001000000 (
#825
0!
#830
1!
0"
b0000000000000000000111000110011001110100100001010011110011111110 &
b0000000000000000000000000000000000000000000000000000000001000001 (
#835
0!
#840
1!
0"
b0000000000000000100111001111110110000100000101100111101001110010 &
b0000000000000000000000000000000000000000000000000000000001000010 (
#845
0!
#850
1!
0"
b0000000000000001100001110010011011000110000001000110011110010001 &
0'
b0000000000000000000000000000000000000000000000000000000001000011 (
#855
0!
#860
1!
0"
b0000000000000001111010101101101011011110101010001001010111000011 &
1'
#865
0!
#870
1!
0"
b0000000000000000111000100000000000111011010011000101011111000001 &
0'
b0000000000000000000000000000000000000000000000000000000001000100 (
#875
0!
#880
1!
0"
b0000000000000001010001010110011011101010111111101111010000000111 &
1'
#885
0!
#890
1!
0"
b0000000000000000111100010010000000001000010001010111110000010010 &
b0000000000000000000000000000000000000000000000000000000001000101 (
#895
0!
#900
1!
0"
b0000000000000000110100100101101110110011001100110110000000110111 &
0'
b0000000000000000000000000000000000000000000000000000000001000110 (
#905
0!
#910
1!
0"
b0000000000000000110011011010111011000110011111011100001101111111 &
1'
#915
0!
#920
1!
0"
b0000000000000001110100000011111001000101111000011001000001000000 &
b0000000000000000000000000000000000000000000000000000000001000111 (
#925
0!
#930
1!
0"
b0000000000000001111110110111100001000101010111111100000100010000 &
b0000000000000000000000000000000000000000000000000000000001001000 (
#935
0!
#940
1!
0"
b0000000000000001010011011000111101111010011101011000010010010011 &
b0000000000000000000000000000000000000000000000000000000001001001 (
#945
0!
#950
1!
0"
b0000000000000001111100100111001000011011010101101001100001001101 &
b0000000000000000000000000000000000000000000000000000000001001010 (
#955
0!
#960
1!
0"
b0000000000000001101110111100100110110000010110110011001100010110 &
b0000000000000000000000000000000000000000000000000000000001001011 (
#965
0!
#970
1!
0"
b0000000000000001110011100100101101000110101110111111000010010011 &
b0000000000000000000000000000000000000000000000000000000001001100 (
#975
0!
#980
1!
0"
b0000000000000000010011100000110000000100111110111100101001111000 &
b0000000000000000000000000000000000000000000000000000000001001101 (
#985
0!
#990
1!
0"
b0000000000000000000101111011100110000101110111001100101011101111 &
b0000000000000000000000000000000000000000000000000000000001001110 (
#995
0!
#1000
1!
0"
b0000000000000000111000011010010011011011100101000100100011001110 &
b0000000000000000000000000000000000000000000000000000000001001111 (
#1005
0!
#1010
1!
0"
b0000000000000000010000111110001000100110101111000110001001111111 &
b0000000000000000000000000000000000000000000000000000000001010000 (
#1015
0!
#1020
1!
0"
b0000000000000001000110000100100101100001001100011101111111001010 &
b0000000000000000000000000000000000000000000000000000000001010001 (
#1025
0!
#1030
1!
0"
b0000000000000000010101110010100101111111000010001111111101100111 &
b0000000000000000000000000000000000000000000000000000000001010010 (
#1035
0!
#1040
1!
0"
b0000000000000000111110100100111101010101110101110100100010111111 &
b0000000000000000000000000000000000000000000000000000000001010011 (
#1045
0!
#1050
1!
0"
b0000000000000001011001110010000101101000011001110000110100001100 &
b0000000000000000000000000000000000000000000000000000000001010100 (
#1055
0!
#1060
1!
0"
b0000000000000000000010010101101011011101100101110110111100101111 &
0'
b0000000000000000000000000000000000000000000000000000000001010101 (
#1065
0!
#1070
1!
0"
b0000000000000001101001110001100011100111000001011001111100110111 &
1'
#1075
0!
#1080
1!
0"
b0000000000000001000001001100110000110101101100011000001110011001 &
b0000000000000000000000000000000000000000000000000000000001010110 (
#1085
0!
#1090
1!
0"
b0000000000000001011111100110011011001111001100000010110110101011 &
b0000000000000000000000000000000000000000000000000000000001010111 (
#1095
0!
#1100
1!
0"
b0000000000000001001100111110100001010000100110111110100011010010 &
b0000000000000000000000000000000000000000000000000000000001011000 (
#1105
0!
#1110
1!
0"
b0000000000000001001111010010100011011000001101111010100101011000 &
b0000000000000000000000000000000000000000000000000000000001011001 (
#1115
0!
#1120
1!
0"
b0000000000000000000010111100100100110011001011011100110001111110 &
b0000000000000000000000000000000000000000000000000000000001011010 (
#1125
0!
#1130
1!
0"
b0000000000000000110111111000010100111001001011111110001001111110 &
b0000000000000000000000000000000000000000000000000000000001011011 (
#1135
0!
#1140
1!
0"
b0000000000000001001011100100010110001101011000011000011001000010 &
b0000000000000000000000000000000000000000000000000000000001011100 (
#1145
0!
#1150
1!
0"
b0000000000000000111110110010101001000001100000001110011001111100 &
b0000000000000000000000000000000000000000000000000000000001011101 (
#1155
0!
#1160
1!
0"
b0000000000000000001101011011001011110110000111101010111101110011 &
0'
b0000000000000000000000000000000000000000000000000000000001011110 (
#1165
0!
#1170
1!
0"
b0000000000000001100110110000101001011101001111001101111110000010 &
#1175
0!
#1180
1!
0"
b0000000000000001001011000111110101001011101110000010000111110010 &
1'
#1185
0!
#1190
1!
0"
b0000000000000000001010111100110010001010010001111101100011111111 &
b0000000000000000000000000000000000000000000000000000000001011111 (
#1195
0!
#1200
1!
0"
b0000000000000001011010100011001010010101100000011111001101100000 &
b0000000000000000000000000000000000000000000000000000000001100000 (
#1205
0!
#1210
1!
0"
b0000000000000001011110010100001010011100010001011011010001001110 &
b0000000000000000000000000000000000000000000000000000000001100001 (
#1215
0!
#1220
1!
0"
b0000000000000001010110000100101000011011010010001011001001010001 &
0'
b0000000000000000000000000000000000000000000000000000000001100010 (
#1225
0!
#1230
1!
0"
b0000000000000000000101000010100001011101001111000001100100110101 &
1'
#1235
0!
#1240
1!
0"
b0000000000000001101101010100010000101111000101101101001110000111 &
b0000000000000000000000000000000000000000000000000000000001100011 (
#1245
0!
#1250
1!
0"
b0000000000000001111110011111111110110111010111010100001011101111 &
b0000000000000000000000000000000000000000000000000000000001100100 (
#1255
0!
#1260
1!
0"
b0000000000000001111111001111110100010110011010101010001001100111 &
b0000000000000000000000000000000000000000000000000000000001100101 (
#1265
0!
#1270
1!
0"
b0000000000000001001110111100100110001001000001010110011110000110 &
b0000000000000000000000000000000000000000000000000000000001100110 (
#1275
0!
#1280
1!
0"
b0000000000000001001001110101011001100110111010010101000001010101 &
b0000000000000000000000000000000000000000000000000000000001100111 (
#1285
0!
#1290
1!
0"
b0000000000000000101000011101011111000100010101000110010000000100 &
b0000000000000000000000000000000000000000000000000000000001101000 (
#1295
0!
#1300
1!
0"
b0000000000000000001110010010000011011101100000101011000111110111 &
b0000000000000000000000000000000000000000000000000000000001101001 (
#1305
0!
#1310
1!
0"
b0000000000000001001101001010111001000110101101110010101100001101 &
b0000000000000000000000000000000000000000000000000000000001101010 (
#1315
0!
#1320
1!
0"
b0000000000000001011011001010010111011101100011011110001110001000 &
0'
b0000000000000000000000000000000000000000000000000000000001101011 (
#1325
0!
#1330
1!
0"
b0000000000000000010011101110111110011010010001101000111111101101 &
1'
#1335
0!
#1340
1!
0"
b0000000000000000000011100110101100001011010100001000011110100100 &
b0000000000000000000000000000000000000000000000000000000001101100 (
#1345
0!
#1350
1!
0"
b0000000000000000100011000100101100001110000011101011000001100111 &
b0000000000000000000000000000000000000000000000000000000001101101 (
#1355
0!
#1360
1!
0"
b0000000000000000001001101000001101000010101110100011000000111001 &
b0000000000000000000000000000000000000000000000000000000001101110 (
#1365
0!
#1370
1!
0"
b0000000000000000011000011011001001000000110111110000101001011100 &
b0000000000000000000000000000000000000000000000000000000001101111 (
#1375
0!
#1380
1!
0"
b0000000000000001001010100001000011010110101011001111101100101001 &
b0000000000000000000000000000000000000000000000000000000001110000 (
#1385
0!
#1390
1!
0"
b0000000000000001101101000111011111010110011011001110000011100101 &
b0000000000000000000000000000000000000000000000000000000001110001 (
#1395
0!
#1400
1!
0"
b0000000000000001101111101000100110000110011111101011000110100001 &
0'
b0000000000000000000000000000000000000000000000000000000001110010 (
#1405
0!
#1410
1!
0"
b0000000000000001110010000111000001110010001101001001111111100011 &
#1415
0!
#1420
1!
0"
b0000000000000000101010101000001000101110100101100101110010110001 &
1'
#1425
0!
#1430
1!
0"
b0000000000000001110101001001101001001001011101011011111001100010 &
b0000000000000000000000000000000000000000000000000000000001110011 (
#1435
0!
#1440
1!
0"
b0000000000000000011000000000111000011001101111111010010110011011 &
b0000000000000000000000000000000000000000000000000000000001110100 (
#1445
0!
#1450
1!
0"
b0000000000000000010001011010010101111000011011111101111101011110 &
b0000000000000000000000000000000000000000000000000000000001110101 (
#1455
0!
#1460
1!
0"
b0000000000000000001110011101100010100111011101000100011111001010 &
b0000000000000000000000000000000000000000000000000000000001110110 (
#1465
0!
#1470
1!
0"
b0000000000000001010100001110101100111111110001000001101111011110 &
b0000000000000000000000000000000000000000000000000000000001110111 (
#1475
0!
#1480
1!
0"
b0000000000000000011100011111010000110000100011101100010110111010 &
b0000000000000000000000000000000000000000000000000000000001111000 (
#1485
0!
#1490
1!
0"
b0000000000000001001111010001001001110001110100101010011111101111 &
b0000000000000000000000000000000000000000000000000000000001111001 (
#1495
0!
#1500
1!
0"
b0000000000000000110100001010011011010001001010111111010000000110 &
b0000000000000000000000000000000000000000000000000000000001111010 (
#1505
0!
#1510
1!
0"
b0000000000000001111101000101001011011101111110100101011111110000 &
0'
b0000000000000000000000000000000000000000000000000000000001111011 (
#1515
0!
#1520
1!
0"
b0000000000000000111001101010011000010110111000001111001111000011 &
1'
#1525
0!
#1530
1!
0"
b0000000000000000110111111011111111111000011000111100111100000000 &
b0000000000000000000000000000000000000000000000000000000001111100 (
#1535
0!
#1540
1!
0"
b0000000000000000000110000100110001011011000010111110111111011011 &
b0000000000000000000000000000000000000000000000000000000001111101 (
#1545
0!
#1550
1!
0"
b0000000000000000011000001111101001101100101110111001111110010010 &
b0000000000000000000000000000000000000000000000000000000001111110 (
#1555
0!
#1560
1!
0"
b0000000000000000100001111101100101000110110100001111111001000011 &
b0000000000000000000000000000000000000000000000000000000001111111 (
#1565
0!
#1570
1!
0"
b0000000000000001001110010001001010111010111101010010101110010001 &
b0000000000000000000000000000000000000000000000000000000010000000 (
#1575
0!
#1580
1!
0"
b0000000000000001011110001110110101110011111110011010011111100100 &
b0000000000000000000000000000000000000000000000000000000010000001 (
#1585
0!
#1590
1!
0"
b0000000000000001010100110100100000110101000000011100100001101100 &
0'
b0000000000000000000000000000000000000000000000000000000010000010 (
#1595
0!
#1600
1!
0"
b0000000000000001110011100000110101111100010100111110011011000110 &
1'
#1605
0!
#1610
1!
0"
b0000000000000001111010011111110011110101010011000000000111010000 &
b0000000000000000000000000000000000000000000000000000000010000011 (
#1615
0!
#1620
1!
0"
b0000000000000000110110010111110011000011010000010101011010010001 &
b0000000000000000000000000000000000000000000000000000000010000100 (
#1625
0!
#1630
1!
0"
b0000000000000000111100111010100000001010011111010001101001111111 &
b0000000000000000000000000000000000000000000000000000000010000101 (
#1635
0!
#1640
1!
0"
b0000000000000000111101001011100111110001101101001010100110110111 &
b0000000000000000000000000000000000000000000000000000000010000110 (
#1645
0!
#1650
1!
0"
b0000000000000001011000110111111000010001101011011110000011000100 &
0'
b0000000000000000000000000000000000000000000000000000000010000111 (
#1655
0!
#1660
1!
0"
b0000000000000000011111100001001101111001000101001100001000010110 &
1'
#1665
0!
#1670
1!
0"
b0000000000000000001000110101010000110111010111111001110010000110 &
b0000000000000000000000000000000000000000000000000000000010001000 (
#1675
0!
#1680
1!
0"
b0000000000000001001001011100001100011101111001001010100100011101 &
b0000000000000000000000000000000000000000000000000000000010001001 (
#1685
0!
#1690
1!
0"
b0000000000000001100111001110110101101011111100101111100110101110 &
b0000000000000000000000000000000000000000000000000000000010001010 (
#1695
0!
#1700
1!
0"
b0000000000000001000110110101011011000111001001001000010010011011 &
0'
b0000000000000000000000000000000000000000000000000000000010001011 (
#1705
0!
#1710
1!
0"
b0000000000000001001010110101010111010101010000110100100100010110 &
1'
#1715
0!
#1720
1!
0"
b0000000000000000101001001001011101011100101100001001101001101100 &
0'
b0000000000000000000000000000000000000000000000000000000010001100 (
#1725
0!
#1730
1!
0"
b0000000000000001010101100000100000110110011111010100010100111001 &
1'
#1735
0!
#1740
1!
0"
b0000000000000000101000011000111010100110111110001110010010111011 &
0'
b0000000000000000000000000000000000000000000000000000000010001101 (
#1745
0!
#1750
1!
0"
b0000000000000001101111100111010001010101000111100010100010010010 &
1'
#1755
0!
#1760
1!
0"
b0000000000000000000001100110000111111110001101001000100110110111 &
b0000000000000000000000000000000000000000000000000000000010001110 (
#1765
0!
#1770
1!
0"
b0000000000000001011101010111001001011100011101010010010111001100 &
0'
b0000000000000000000000000000000000000000000000000000000010001111 (
#1775
0!
#1780
1!
0"
b0000000000000001010001100010010110010101001001101010011000000110 &
1'
#1785
0!
#1790
1!
0"
b0000000000000000110100010110000000001110001011111100011100100111 &
0'
b0000000000000000000000000000000000000000000000000000000010010000 (
#1795
0!
#1800
1!
0"
b0000000000000000100101110100001001001110000101011001100100111001 &
1'
#1805
0!
#1810
1!
0"
b0000000000000000111001111100111000000000101010011010010000011110 &
b0000000000000000000000000000000000000000000000000000000010010001 (
#1815
0!
#1820
1!
0"
b0000000000000001101101000010110110101101000001001010010100101010 &
b0000000000000000000000000000000000000000000000000000000010010010 (
#1825
0!
#1830
1!
0"
b0000000000000001011111000111100011110010111111110011100010010001 &
b0000000000000000000000000000000000000000000000000000000010010011 (
#1835
0!
#1840
1!
0"
b0000000000000000000010111101011100010110000001001111011010100001 &
b0000000000000000000000000000000000000000000000000000000010010100 (
#1845
0!
#1850
1!
0"
b0000000000000000011001000111000100011010000011011110011100001101 &
0'
b0000000000000000000000000000000000000000000000000000000010010101 (
#1855
0!
#1860
1!
0"
b0000000000000001010101111010011010100110101001010111011010101101 &
1'
#1865
0!
#1870
1!
0"
b0000000000000000001000011011001110100010010111111111110010110111 &
b0000000000000000000000000000000000000000000000000000000010010110 (
#1875
0!
#1880
1!
0"
b0000000000000001011001111111001110111101110100100010010110101001 &
b0000000000000000000000000000000000000000000000000000000010010111 (
#1885
0!
#1890
1!
0"
b0000000000000001000000111100011001110011110000111010010010001100 &
b0000000000000000000000000000000000000000000000000000000010011000 (
#1895
0!
#1900
1!
0"
b0000000000000001100111111011010001000011001111110000111101010011 &
b0000000000000000000000000000000000000000000000000000000010011001 (
#1905
0!
#1910
1!
0"
b0000000000000001100111010101010010111000100011011010100001000100 &
b0000000000000000000000000000000000000000000000000000000010011010 (
#1915
0!
#1920
1!
0"
b0000000000000000110111011000011100010111010101001110101101111001 &
b0000000000000000000000000000000000000000000000000000000010011011 (
#1925
0!
#1930
1!
0"
b0000000000000001110000010010010010100111101011101010010001010001 &
0'
b0000000000000000000000000000000000000000000000000000000010011100 (
#1935
0!
#1940
1!
0"
b0000000000000000011110111111100001011010101011100100100001011011 &
1'
#1945
0!
#1950
1!
0"
b0000000000000000111110000100001010100101110001100110011001000001 &
b0000000000000000000000000000000000000000000000000000000010011101 (
#1955
0!
#1960
1!
0"
b0000000000000001010001101111110000000000101111100111010101110010 &
b0000000000000000000000000000000000000000000000000000000010011110 (
#1965
0!
#1970
1!
0"
b0000000000000000110001100101001110101000000100011010110110101100 &
b0000000000000000000000000000000000000000000000000000000010011111 (
#1975
0!
#1980
1!
0"
b0000000000000000101100100101010101110100101010101110001001010100 &
b0000000000000000000000000000000000000000000000000000000010100000 (
#1985
0!
#1990
1!
0"
b0000000000000000001110001001101111100101101000101110010011011101 &
0'
b0000000000000000000000000000000000000000000000000000000010100001 (
#1995
0!
#2000
1!
0"
b0000000000000000100001011101010101010101101010100101110100010101 &
1'
#2005
0!
#2010
1!
0"
b0000000000000000100001010001001011011111010001111101001110000001 &
b0000000000000000000000000000000000000000000000000000000010100010 (
#2015
0!
#2020
1!
0"
b0000000000000000100001011010110010101110001010100001010111011001 &
b0000000000000000000000000000000000000000000000000000000010100011 (
#2025
0!
#2030
1!
0"
b0000000000000001110100000011001110011110001100111010100100000011 &
b0000000000000000000000000000000000000000000000000000000010100100 (
#2035
0!
#2040
1!
0"
b0000000000000000011101111100110000010000010001011100101101101110 &
0'
b0000000000000000000000000000000000000000000000000000000010100101 (
#2045
0!
#2050
1!
0"
b0000000000000001100110001111001111100000110110100100010011010100 &
1'
#2055
0!
#2060
1!
0"
b0000000000000001100011000110001010010010001001110010100100010101 &
b0000000000000000000000000000000000000000000000000000000010100110 (
#2065
0!
#2070
1!
0"
b0000000000000001100100001011111100010110000010111000100100000111 &
b0000000000000000000000000000000000000000000000000000000010100111 (
#2075
0!
#2080
1!
0"
b0000000000000001010011000001111101011110111010011011100010100111 &
b0000000000000000000000000000000000000000000000000000000010101000 (
#2085
0!
#2090
1!
0"
b0000000000000001111010110111110011000000000001011001101000100001 &
b0000000000000000000000000000000000000000000000000000000010101001 (
#2095
0!
#2100
1!
0"
b0000000000000000110101011000011111001000101111010101011010000100 &
b0000000000000000000000000000000000000000000000000000000010101010 (
#2105
0!
#2110
1!
0"
b0000000000000000111100001001011110101101010101011011100101011010 &
b0000000000000000000000000000000000000000000000000000000010101011 (
#2115
0!
#2120
1!
0"
b0000000000000000001111001100001001111101011001111010010000001011 &
b0000000000000000000000000000000000000000000000000000000010101100 (
#2125
0!
#2130
1!
0"
b0000000000000000111110100010110010100111110100010001000011000100 &
b0000000000000000000000000000000000000000000000000000000010101101 (
#2135
0!
#2140
1!
0"
b0000000000000001010011001110111010100011000010101100001110010111 &
b0000000000000000000000000000000000000000000000000000000010101110 (
#2145
0!
#2150
1!
0"
b0000000000000000110111100101010011011110101000100110011101011111 &
b0000000000000000000000000000000000000000000000000000000010101111 (
#2155
0!
#2160
1!
0"
b0000000000000001110111111111000011000000001100010111101010011100 &
b0000000000000000000000000000000000000000000000000000000010110000 (
#2165
0!
#2170
1!
0"
b0000000000000000100101110111010100100010110101000010111000101101 &
b0000000000000000000000000000000000000000000000000000000010110001 (
#2175
0!
#2180
1!
0"
b0000000000000001010010100001101100101010111011001010101100001111 &
0'
b0000000000000000000000000000000000000000000000000000000010110010 (
#2185
0!
#2190
1!
0"
b0000000000000001101101110011011001011100100010010000000110101010 &
1'
#2195
0!
#2200
1!
0"
b0000000000000001000000011001111011111101001110000111000100010010 &
b0000000000000000000000000000000000000000000000000000000010110011 (
#2205
0!
#2210
1!
0"
b0000000000000000100010110101110101001111011010111111101111110010 &
b0000000000000000000000000000000000000000000000000000000010110100 (
#2215
0!
#2220
1!
0"
b0000000000000001011001101101011111011010010001101011101111100001 &
b0000000000000000000000000000000000000000000000000000000010110101 (
#2225
0!
#2230
1!
0"
b0000000000000001001110001010011110111100011101001101011110001100 &
b0000000000000000000000000000000000000000000000000000000010110110 (
#2235
0!
#2240
1!
0"
b0000000000000001001011111011101000000000011111110101110111101010 &
b0000000000000000000000000000000000000000000000000000000010110111 (
#2245
0!
#2250
1!
0"
b0000000000000001111101011110100001101110110110000000100000111001 &
0'
b0000000000000000000000000000000000000000000000000000000010111000 (
#2255
0!
#2260
1!
0"
b0000000000000000100000101010110010011100000001000110010100000010 &
1'
#2265
0!
