day05_accelerator.vcd
$date
  ...
$end
$version
  Hardcaml
$end
$comment
  Hardware design in ocaml
$end
$timescale 1ns $end
$scope module inputs $end
$var wire 1 ! clock $end
$var wire 1 " reset $end
$var wire 64 # wr_end $end
$var wire 64 $ wr_start $end
$var wire 1 % wr_enable $end
$var wire 1 & clear $end
$var wire 1 ( start_processing $end
$upscope $end
$scope module outputs $end
$var wire 64 ) result $end
$var wire 1 * done_flag $end
$var wire 2 + state_debug $end
$upscope $end
$scope module various $end
$upscope $end
$enddefinitions $end
$dumpvars
x!
x"
bxxxxxxxxxxxxxxxxxxxxxxxxxxxxxxxxxxxxxxxxxxxxxxxxxxxxxxxxxxxxxxxx #
bxxxxxxxxxxxxxxxxxxxxxxxxxxxxxxxxxxxxxxxxxxxxxxxxxxxxxxxxxxxxxxxx $
x%
x&
x(
bxxxxxxxxxxxxxxxxxxxxxxxxxxxxxxxxxxxxxxxxxxxxxxxxxxxxxxxxxxxxxxxx )
x*
bxx +
$end
#0
1!
0"
b0000000000000000000000000000000000000000000000000000000000000000 #
b0000000000000000000000000000000000000000000000000000000000000000 $
0%
1&
0(
b0000000000000000000000000000000000000000000000000000000000000000 )
0*
b00 +
#5
0!
#10
1!
0"
0&
#15
0!
#20
1!
0"
b0000000000000001101110001010100101000010000100110011000010000000 #
b0000000000000001101110000101011000100100001000000100000100000011 $
1%
#25
0!
#30
1!
0"
b0000000000000001001010100010101011111000010110100101000110010110 #
b0000000000000001001010011111100110010010010111001011111011001111 $
#35
0!
#40
1!
0"
b0000000000000001111011000001000000111000100101001100000010001011 #
b0000000000000001111010001001010001100100001001101101001111011000 $
#45
0!
#50
1!
0"
b0000000000000001001001110000000000000010000100100001001010000010 #
b0000000000000001001001101101000011011110101010000010111001101100 $
#55
0!
#60
1!
0"
b0000000000000000100111100100101001000010111101101000110110111111 #
b0000000000000000100111011100010000110010101011010000010000101111 $
#65
0!
#70
1!
0"
b0000000000000000111101111111110001101101101110010001101100011010 #
b0000000000000000111101111111110001101101101110010001101100011010 $
#75
0!
#80
1!
0"
b0000000000000000100011000110001111001100110100000100011110111110 #
b0000000000000000100010110000100001111000000101010111010100111011 $
#85
0!
#90
1!
0"
b0000000000000001001100011010001001100110000110110001100011110000 #
b0000000000000001001100000100100100001110101110101010101010110010 $
#95
0!
#100
1!
0"
b0000000000000000011000011100110111001001100110111011110100000001 #
b0000000000000000011000010000010011111110011100010101001101110110 $
#105
0!
#110
1!
0"
b0000000000000001010011001010000111110010110111101101100000000100 #
b0000000000000001010010100011000001011011110001000101101000010001 $
#115
0!
#120
1!
0"
b0000000000000000100010000100101010001100101010110000101111111110 #
b0000000000000000100000101101010101010000100011000110100101001000 $
#125
0!
#130
1!
0"
b0000000000000001110110101001001111110110101101110010001000011111 #
b0000000000000001110100101100101110111001100010010110101010101001 $
#135
0!
#140
1!
0"
b0000000000000001001011010000000010111100000100000111010100001110 #
b0000000000000001001011000111100100001110001011000000101011101000 $
#145
0!
#150
1!
0"
b0000000000000000000111111010001000011000001100100000010111111010 #
b0000000000000000000111100011100010101111001101011011110001100000 $
#155
0!
#160
1!
0"
b0000000000000000011000000010100010011110010101111010110110011110 #
b0000000000000000010111110111101000111000010010110111001011101110 $
#165
0!
#170
1!
0"
b0000000000000000011000001100000100011000111001010101000101100000 #
b0000000000000000011000000010100010011110010101111010110110011110 $
#175
0!
#180
1!
0"
b0000000000000001101101011100111100111100100100111010101110110010 #
b0000000000000001101101001011100011101100111000010010010010100000 $
#185
0!
#190
1!
0"
b0000000000000001011010110111110010101001010011010011100001000100 #
b0000000000000001011001010001010111011110001100010101001100001011 $
#195
0!
#200
1!
0"
b0000000000000001110100001010111110111110100010110101100000100101 #
b0000000000000001110011010010110000101010111001000110000000011010 $
#205
0!
#210
1!
0"
b0000000000000000000111011111101100010100101100101111000011000100 #
b0000000000000000000111000111000001100010011010111111011010110100 $
#215
0!
#220
1!
0"
b0000000000000000010010000011001100000100000110110111111000000001 #
b0000000000000000010000000101011111111110011101100001100011011111 $
#225
0!
#230
1!
0"
b0000000000000001101111001000000110001001110000100011111110101000 #
b0000000000000001101111000010111011111001001010011110101111111101 $
#235
0!
#240
1!
0"
b0000000000000000111000011111010010011011101010001111101001000011 #
b0000000000000000110111110001000100101101000101101111101001000000 $
#245
0!
#250
1!
0"
b0000000000000000001111110111001100110001000110111110110001101100 #
b0000000000000000001111000010000000000101110000100111010100011101 $
#255
0!
#260
1!
0"
b0000000000000000100100010010100001101110011100110100110110000110 #
b0000000000000000100100000000010110101100100011011000010110001100 $
#265
0!
#270
1!
0"
b0000000000000001010001110101010010010010100101011000010001100001 #
b0000000000000001010000010000010111001011101101101111100010110000 $
#275
0!
#280
1!
0"
b0000000000000000101000011010110111100101010001111101010111110110 #
b0000000000000000101000011000111101110100010010010100110110110110 $
#285
0!
#290
1!
0"
b0000000000000001100001010110111011001011010101000101101100010101 #
b0000000000000001100000101011110101111111001111000001000010110001 $
#295
0!
#300
1!
0"
b0000000000000001001101000000101110100011011011111110011010011001 #
b0000000000000001001100101111100001111011000100110010100101110100 $
#305
0!
#310
1!
0"
b0000000000000001011111110101011000000111111011100101110110111111 #
b0000000000000001011101111011101001000001100010001010100000110100 $
#315
0!
#320
1!
0"
b0000000000000001001001110110010010001001000101111100000010101111 #
b0000000000000001001001110000000000000010000100100001001010000010 $
#325
0!
#330
1!
0"
b0000000000000000000110101010111001011110001010101110001110110001 #
b0000000000000000000100110010000011000111011100001001000100000111 $
#335
0!
#340
1!
0"
b0000000000000000101000110001010000011101010100010000111111100000 #
b0000000000000000101000101001010101000110100010111101010000011011 $
#345
0!
#350
1!
0"
b0000000000000001000001100001001100001111111010111001111010011111 #
b0000000000000001000000011000000000000110111001100000111001100000 $
#355
0!
#360
1!
0"
b0000000000000000010111110111101000111000010010110111001011101110 #
b0000000000000000010111101100110111111001111011101110110110111110 $
#365
0!
#370
1!
0"
b0000000000000000100011111011110010011101100101100100101101110011 #
b0000000000000000100011100111110010001000001001010001001101010111 $
#375
0!
#380
1!
0"
b0000000000000001001101010000100100111100000010001111000001010101 #
b0000000000000001001100111010001001001100111111100101011110010100 $
#385
0!
#390
1!
0"
b0000000000000000101000111110101011000001010110001111100110001100 #
b0000000000000000101000110100100110001000110001100000100101000111 $
#395
0!
#400
1!
0"
b0000000000000001101100001011111110101100011101111111101111110101 #
b0000000000000001101011111011010100010000111010111100000101110110 $
#405
0!
#410
1!
0"
b0000000000000001110110101001001111110110101101110010001000011111 #
b0000000000000001110100101100101110111001100010010110101010101001 $
#415
0!
#420
1!
0"
b0000000000000000011000011100110111001001100110111011110100000001 #
b0000000000000000011000010011011011000111010111001100011110011111 $
#425
0!
#430
1!
0"
b0000000000000000100111111101001111111111000100100011010001001100 #
b0000000000000000100111111000010010111001100101011010011011100010 $
#435
0!
#440
1!
0"
b0000000000000001110111101000010101001000100010101100100010000000 #
b0000000000000001110111101000010101001000100010101100100010000000 $
#445
0!
#450
1!
0"
b0000000000000000001000011001001101000010011101001001010110111100 #
b0000000000000000001000000011010010011001000000100010111001010000 $
#455
0!
#460
1!
0"
b0000000000000000100110100111011111111000101111011000101010001110 #
b0000000000000000100101010011101000000101101011000101110111101111 $
#465
0!
#470
1!
0"
b0000000000000000011111110100010100100111111000111101100100010100 #
b0000000000000000011110010101100101101111101011100010000111111000 $
#475
0!
#480
1!
0"
b0000000000000001101111100111010100011000101101011111100100101000 #
b0000000000000001101111100100010000010010100101101000010110001001 $
#485
0!
#490
1!
0"
b0000000000000000101001000011011001110000111111010110100011101011 #
b0000000000000000101000111000001110111101000110000110111100100110 $
#495
0!
#500
1!
0"
b0000000000000001000101111001101111010100011001110010100011000101 #
b0000000000000001000100101111101110001010111100010101110001001111 $
#505
0!
#510
1!
0"
b0000000000000000101001000011011001110000111111010110100011101011 #
b0000000000000000101000111010111110100000011010010011101010111101 $
#515
0!
#520
1!
0"
b0000000000000001111010011101000011110100100100100010011110100110 #
b0000000000000001111001101001010011110011100110010111010000000011 $
#525
0!
#530
1!
0"
b0000000000000000001011000001100011010001111100011010001001100101 #
b0000000000000000001010000000111001011101000011011001111001010001 $
#535
0!
#540
1!
0"
b0000000000000000110001110111111100000101110001100011101100110010 #
b0000000000000000110000100100101001010111100011110011000000010111 $
#545
0!
#550
1!
0"
b0000000000000000100111010011101100101101111100010110110001111011 #
b0000000000000000100111001111111100010001011111100010101100011100 $
#555
0!
#560
1!
0"
b0000000000000000010110011110110010101100000101101010000010001001 #
b0000000000000000010101011111100100000110011100001011110011011101 $
#565
0!
#570
1!
0"
b0000000000000000101111101101111111000000101010100110110111011001 #
b0000000000000000101110101010111100010101101011010010111010000111 $
#575
0!
#580
1!
0"
b0000000000000000101010011100010111110010101001101011111001111100 #
b0000000000000000101010000000111001000011101001011011001101011000 $
#585
0!
#590
1!
0"
b0000000000000001001001010001001000010001001101000001110011100001 #
b0000000000000001001001001111001100100011001011000111100101110110 $
#595
0!
#600
1!
0"
b0000000000000000111011100101001011100011011011110111001101001011 #
b0000000000000000111011100101001011100011011011110111001101001011 $
#605
0!
#610
1!
0"
b0000000000000000001010011100000001101010001010001100110011100011 #
b0000000000000000001001100001010111001001110100110011000001000010 $
#615
0!
#620
1!
0"
b0000000000000000011100000011000010001011011010011001001010111110 #
b0000000000000000011100000011000010001011011010011001001010111110 $
#625
0!
#630
1!
0"
b0000000000000001101011110001100111010011101101011001110000100011 #
b0000000000000001101011011101011110010110111110101000011001100100 $
#635
0!
#640
1!
0"
b0000000000000000100110100111011111111000101111011000101010001110 #
b0000000000000000100101010011101000000101101011000101110111101111 $
#645
0!
#650
1!
0"
b0000000000000000101000011101110000101000001010111010100001011010 #
b0000000000000000101000011010110111100101010001111101010111110110 $
#655
0!
#660
1!
0"
b0000000000000000100111000101000001110000000110110010111101100100 #
b0000000000000000100110111010000101010010100010100001001111111011 $
#665
0!
#670
1!
0"
b0000000000000001111100011100101111001101111010011001010101001101 #
b0000000000000001111100011100101111001101111010011001010101001101 $
#675
0!
#680
1!
0"
b0000000000000000001000111001000100001111000000111011011011100000 #
b0000000000000000001000100000100101111111110000110101010111010001 $
#685
0!
#690
1!
0"
b0000000000000000010111010000111000110100111111000011101110011011 #
b0000000000000000010111000110000100001111110010011011001100011110 $
#695
0!
#700
1!
0"
b0000000000000001110001111000111100001110011000111000101101111100 #
b0000000000000001110000011111110000111111001010010101010100000000 $
#705
0!
#710
1!
0"
b0000000000000000110001110111111100000101110001100011101100110010 #
b0000000000000000110001000101011100111100100000000111110000110100 $
#715
0!
#720
1!
0"
b0000000000000001001011110001110011001000111011110101111110110011 #
b0000000000000001001011100000010001110100100100000010000111100011 $
#725
0!
#730
1!
0"
b0000000000000000100111001111111100010001011111100010101100011100 #
b0000000000000000100111001010001011100011011001111011111111110011 $
#735
0!
#740
1!
0"
b0000000000000001001111100000001100100101001011010000111011110010 #
b0000000000000001001110000000001011001010101001000001000001010101 $
#745
0!
#750
1!
0"
b0000000000000000000111101100001011000111100001111010100010111100 #
b0000000000000000000111010111011101000101100111100001011001111101 $
#755
0!
#760
1!
0"
b0000000000000000001111110111001100110001000110111110110001101100 #
b0000000000000000001110001010001000000110111101101001111111000100 $
#765
0!
#770
1!
0"
b0000000000000001101101010010010000010001101001001001100111100101 #
b0000000000000001101100111100111101101110110000111110001011100111 $
#775
0!
#780
1!
0"
b0000000000000000010111100100101111001000110010111111110011011111 #
b0000000000000000010111100000101001111110001111010011101111100111 $
#785
0!
#790
1!
0"
b0000000000000001111000100101010011100001001000011110100001101010 #
b0000000000000001110111101000010101001000100010101100100010000001 $
#795
0!
#800
1!
0"
b0000000000000001101100110101011010000111111110001111000101011101 #
b0000000000000001101100100010110101010000111100110000000001111001 $
#805
0!
#810
1!
0"
b0000000000000001010000010000010111001011101101101111100010110000 #
b0000000000000001010000010000010111001011101101101111100010110000 $
#815
0!
#820
1!
0"
b0000000000000000111011001000100110001110101000110001110010001001 #
b0000000000000000111001010101111001011000010001111000001011111000 $
#825
0!
#830
1!
0"
b0000000000000000000001011010001111001101001011001011001010000101 #
b0000000000000000000000000111010101010110000010100111110100001100 $
#835
0!
#840
1!
0"
b0000000000000000000001100111111000110000011011101011111101100000 #
b0000000000000000000001011010001111001101001011001011001010000110 $
#845
0!
#850
1!
0"
b0000000000000001101111110110000111111111011001100001100010110001 #
b0000000000000001101111110100000100010001101000111111111111000101 $
#855
0!
#860
1!
0"
b0000000000000001001010000110001111100000110101011101000111110110 #
b0000000000000001001001111001001000011110110011010110110100010100 $
#865
0!
#870
1!
0"
b0000000000000001001000111000001101011101001000101100110011101011 #
b0000000000000001000111111101100110010010010100011100001011111110 $
#875
0!
#880
1!
0"
b0000000000000001101011010001110000100001111111000000011100011011 #
b0000000000000001101010010011001010011110000010010001110000111010 $
#885
0!
#890
1!
0"
b0000000000000000100011011110111110000010110100001001100110010000 #
b0000000000000000100011001001011110111011110000101101000011000001 $
#895
0!
#900
1!
0"
b0000000000000001000110010010111101111111011001001100010110110100 #
b0000000000000001000101111001101111010100011001110010100011000110 $
#905
0!
#910
1!
0"
b0000000000000000110111110001000100101101000101101111101000111111 #
b0000000000000000110110111101101101100110000100011101111111101101 $
#915
0!
#920
1!
0"
b0000000000000000011000010011011011000111010111001100011110011111 #
b0000000000000000011000001001010000110001111100000100111110111111 $
#925
0!
#930
1!
0"
b0000000000000000011001101111000011001111101001000110100100110000 #
b0000000000000000011001101111000011001111101001000110100100110000 $
#935
0!
#940
1!
0"
b0000000000000000100100000110111101000001001011111010101110010111 #
b0000000000000000100011110001001001100001111001000011111001111100 $
#945
0!
#950
1!
0"
b0000000000000001011101010000011111010100011000011100111100110000 #
b0000000000000001011100010001000101011000000100100110000010001100 $
#955
0!
#960
1!
0"
b0000000000000001001001100001010110100010011000010110111000001111 #
b0000000000000001001001010101111010000100010010000001101111000000 $
#965
0!
#970
1!
0"
b0000000000000001001010111100010100000000001111010101010011111111 #
b0000000000000001001010111001010010111010000000011011001100100010 $
#975
0!
#980
1!
0"
b0000000000000001011111001100010001010011001010101110001011001100 #
b0000000000000001011110101100001101100011100011101011000000010011 $
#985
0!
#990
1!
0"
b0000000000000001101100101000000010001110100111110100100011101010 #
b0000000000000001101100010101001100001000001100010100001101101111 $
#995
0!
#1000
1!
0"
b0000000000000000001101000001010011010011000001101111101111101101 #
b0000000000000000001011111001011000100011010001101111110110110100 $
#1005
0!
#1010
1!
0"
b0000000000000001000001111101110101111001011101010100100001111100 #
b0000000000000001000001000000111110111111000011110011100111100110 $
#1015
0!
#1020
1!
0"
b0000000000000000011111110100010100100111111000111101100100010100 #
b0000000000000000011111110100010100100111111000111101100100010100 $
#1025
0!
#1030
1!
0"
b0000000000000000010111110111101000111000010010110111001011101110 #
b0000000000000000010111101100110111111001111011101110110110111110 $
#1035
0!
#1040
1!
0"
b0000000000000001100011100110101111001001100101110100100111111010 #
b0000000000000001100010111011000101101010011010101000111100010111 $
#1045
0!
#1050
1!
0"
b0000000000000000011000010011011011000111010111001100011110011111 #
b0000000000000000011000010000010011111110011100010101001101110110 $
#1055
0!
#1060
1!
0"
b0000000000000001110001010011110010110010110110011111101110101111 #
b0000000000000001110000011111110000111111001010010101010100000000 $
#1065
0!
#1070
1!
0"
b0000000000000001101111001000000110001001110000100011111110101000 #
b0000000000000001101111000010111011111001001010011110101111111101 $
#1075
0!
#1080
1!
0"
b0000000000000001100100011011110010011001100100111000000101100101 #
b0000000000000001100010100010101110100111010000111111110100101101 $
#1085
0!
#1090
1!
0"
b0000000000000001101110000001010100111110110011111101011011000000 #
b0000000000000001101101110111000110010110111111000101000000111100 $
#1095
0!
#1100
1!
0"
b0000000000000001010111000100101011110111101011111110000111100100 #
b0000000000000001010111000100101011110111101011111110000111100100 $
#1105
0!
#1110
1!
0"
b0000000000000000111111011010100000110001101001101011111011110101 #
b0000000000000000111101111111110001101101101110010001101100011011 $
#1115
0!
#1120
1!
0"
b0000000000000000000111010000101101000000010110111000111001000100 #
b0000000000000000000110111100000101101100110111000000010101001011 $
#1125
0!
#1130
1!
0"
b0000000000000001100110010001010100011000111001101110100100100001 #
b0000000000000001100101100000111101000110101100001011011101111100 $
#1135
0!
#1140
1!
0"
b0000000000000001101101101010100000110011110100000010111111000001 #
b0000000000000001101101010110110110010010111110110111001010101010 $
#1145
0!
#1150
1!
0"
b0000000000000001001101101100101010011101011100111100010001001010 #
b0000000000000001001101010110110010111111001001001011100001100011 $
#1155
0!
#1160
1!
0"
b0000000000000001001100101001000100000101011110101111011011101000 #
b0000000000000001001100010011010010011001110001100000000110101011 $
#1165
0!
#1170
1!
0"
b0000000000000000100111000101000001110000000110110010111101100100 #
b0000000000000000100110111100010010101110100111010110110101100010 $
#1175
0!
#1180
1!
0"
b0000000000000001001001011001111010101001100110011001000000110110 #
b0000000000000001001001010001001000010001001101000001110011100001 $
#1185
0!
#1190
1!
0"
b0000000000000001001010110101101011011001010000101101001000000011 #
b0000000000000001001010101001011000101001110010100000111000011101 $
#1195
0!
#1200
1!
0"
b0000000000000000001000100101110000110101110000110101100101101011 #
b0000000000000000001000010010111100010001000001110001101111110110 $
#1205
0!
#1210
1!
0"
b0000000000000001101101111010110000010001000001111000100111101111 #
b0000000000000001101101101110001111011011110110000111100111010100 $
#1215
0!
#1220
1!
0"
b0000000000000001001011000011000010010010011101011110100001010000 #
b0000000000000001001010111111110110111100010010111000010000000101 $
#1225
0!
#1230
1!
0"
b0000000000000001001110111000111111110011011111111010000111101000 #
b0000000000000001001110000000001011001010101001000001000001010101 $
#1235
0!
#1240
1!
0"
b0000000000000000100001100000110100110110111000010000011000110001 #
b0000000000000000100000010001000011000101101110111000111101100010 $
#1245
0!
#1250
1!
0"
b0000000000000001001010100010101011111000010110100101000110010110 #
b0000000000000001001010011010000100110010011011000011000101010101 $
#1255
0!
#1260
1!
0"
b0000000000000000000100000110101000111101100011111000111010000100 #
b0000000000000000000010011110111100010101000101011110011100011010 $
#1265
0!
#1270
1!
0"
b0000000000000001001101011100110001001011000101011111111011101110 #
b0000000000000001001101001001000101000100101111000100111110001011 $
#1275
0!
#1280
1!
0"
b0000000000000001101000111100010001111010101000100100001000111100 #
b0000000000000001100111000100111110011010100111111010111110110110 $
#1285
0!
#1290
1!
0"
b0000000000000000000110000001111000011000001001010101100110110011 #
b0000000000000000000101100101010010000101100001100001011001010000 $
#1295
0!
#1300
1!
0"
b0000000000000001010101111110100000011000100111011011001100011100 #
b0000000000000001010101010000101010011011111111010100100010100101 $
#1305
0!
#1310
1!
0"
b0000000000000001110100001010111110111110100010110101100000100110 #
b0000000000000001110100001010111110111110100010110101100000100110 $
#1315
0!
#1320
1!
0"
b0000000000000001101101000011110000010001101001110010010000001000 #
b0000000000000001101100101110111111010010101010010110101000010011 $
#1325
0!
#1330
1!
0"
b0000000000000000100111101001000100011001010000100111110100001010 #
b0000000000000000100111100100101001000010111101101000110110111111 $
#1335
0!
#1340
1!
0"
b0000000000000001111111110011100110011010100100110001010010101111 #
b0000000000000001111111001001000010100011010100000010110000001111 $
#1345
0!
#1350
1!
0"
b0000000000000000011010110111100110001111101111110100010111100111 #
b0000000000000000011001101111000011001111101001000110100100110001 $
#1355
0!
#1360
1!
0"
b0000000000000001011000101111101000001100101111100111001010101000 #
b0000000000000001010111000100101011110111101011111110000111100101 $
#1365
0!
#1370
1!
0"
b0000000000000000010011001101100110001101001110110000100100101000 #
b0000000000000000010010100010100111001101110111001111110001100000 $
#1375
0!
#1380
1!
0"
b0000000000000000011000000110110110111101001110000001110011010010 #
b0000000000000000010111111101111001100000011101100100010111000110 $
#1385
0!
#1390
1!
0"
b0000000000000001101111110110000111111111011001100001100010110001 #
b0000000000000001101111110000101110001000111000011000110001000100 $
#1395
0!
#1400
1!
0"
b0000000000000001100001010110111011001011010101000101101100010101 #
b0000000000000001100001010110111011001011010101000101101100010101 $
#1405
0!
#1410
1!
0"
b0000000000000000111011001000100110001110101000110001110010001010 #
b0000000000000000111011001000100110001110101000110001110010001010 $
#1415
0!
#1420
1!
0"
b0000000000000001001000111000001101011101001000101100110011101011 #
b0000000000000001000111010111100110111011110001110011100011111111 $
#1425
0!
#1430
1!
0"
b0000000000000000100111101001000100011001010000100111110100001010 #
b0000000000000000100111100100101001000010111101101000110110111111 $
#1435
0!
#1440
1!
0"
b0000000000000000101101011001110101000100001010111011000110110101 #
b0000000000000000101011100101110110110000100000100111000100010000 $
#1445
0!
#1450
1!
0"
b0000000000000001001100110110000110110001100100100111011101000101 #
b0000000000000001001100100000110101001010111000100111000011000011 $
#1455
0!
#1460
1!
0"
b0000000000000000100011010000111000101100100111111001101011000100 #
b0000000000000000100010111010110110101001110101011101010010001011 $
#1465
0!
#1470
1!
0"
b0000000000000000010111100000101001111110001111010011101111100111 #
b0000000000000000010111011101100000110111110111100000100001000010 $
#1475
0!
#1480
1!
0"
b0000000000000000010001010100001011011001010101000100000000101111 #
b0000000000000000010000000101011111111110011101100001100011011111 $
#1485
0!
#1490
1!
0"
b0000000000000000001101000001010011010011000001101111101111101110 #
b0000000000000000001101000001010011010011000001101111101111101110 $
#1495
0!
#1500
1!
0"
b0000000000000001001100000001111111111011111101111001101110011110 #
b0000000000000001001011101010111011010011110011110100100111111001 $
#1505
0!
#1510
1!
0"
b0000000000000000100111000101000001110000000110110010111101100100 #
b0000000000000000100110111100010010101110100111010110110101100010 $
#1515
0!
#1520
1!
0"
b0000000000000000001001000111011001111001011110111110110011101101 #
b0000000000000000001000101101100100101110001010010110100000001110 $
#1525
0!
#1530
1!
0"
b0000000000000000010011111001011101111110101000001111010001001011 #
b0000000000000000010011001101100110001101001110110000100100101010 $
#1535
0!
#1540
1!
0"
b0000000000000000011000010000010011111110011100010101001101110110 #
b0000000000000000011000001001010000110001111100000100111110111111 $
#1545
0!
#1550
1!
0"
b0000000000000001010101111110100000011000100111011011001100011101 #
b0000000000000001010101111110100000011000100111011011001100011101 $
#1555
0!
#1560
1!
0"
b0000000000000001111100101100110010011101101111001111001011100010 #
b0000000000000001111100011100101111001101111010011001010101001101 $
#1565
0!
#1570
1!
0"
b0000000000000001011101010000011111010100011000011100111100110000 #
b0000000000000001011101010000011111010100011000011100111100110000 $
#1575
0!
#1580
1!
0"
b0000000000000001101110111010000010110001001101101001100101101111 #
b0000000000000001101110101110010010101011000110100100110101100011 $
#1585
0!
#1590
1!
0"
b0000000000000001101010010011001010011110000010010001110000111001 #
b0000000000000001101001100010100010110100010000111111110010100100 $
#1595
0!
#1600
1!
0"
b0000000000000000100111011100010000110010101011010000010000101111 #
b0000000000000000100111011001010110010010010001111010001010000100 $
#1605
0!
#1610
1!
0"
b0000000000000000100011101011100110010001010011101010001000111010 #
b0000000000000000100011011010000011100010100100110111101011010110 $
#1615
0!
#1620
1!
0"
b0000000000000001101100000010010110001011000011001000111001110100 #
b0000000000000001101011101001101111101010110110111010100101001011 $
#1625
0!
#1630
1!
0"
b0000000000000001001100001111011100010100011101100000100101000111 #
b0000000000000001001011111010010001101101000001111011011001100000 $
#1635
0!
#1640
1!
0"
b0000000000000001101111000000111101100111001000011111111110111111 #
b0000000000000001101110111010000010110001001101101001100101101111 $
#1645
0!
#1650
1!
0"
b0000000000000001001011001011001101010001101110001111011011111001 #
b0000000000000001001011000111100100001110001011000000101011101000 $
#1655
0!
#1660
1!
0"
b0000000000000000010110011110110010101100000101101010000010001001 #
b0000000000000000010101011111100100000110011100001011110011011101 $
#1665
0!
#1670
1!
0"
b0000000000000001011010110111110010101001010011010011100001000100 #
b0000000000000001011001010001010111011110001100010101001100001011 $
#1675
0!
#1680
1!
0"
b0000000000000000101110101010111100010101101011010010111010000101 #
b0000000000000000101110001011100101100111000100101010010111010101 $
#1685
0!
#1690
1!
0"
b0000000000000000110110011010111000100011100101000110001000101111 #
b0000000000000000110100111010010010011100010111011000001111111011 $
#1695
0!
#1700
1!
0"
b0000000000000000100111010101111101101100101100010011110011001000 #
b0000000000000000100111001010001011100011011001111011111111110011 $
#1705
0!
#1710
1!
0"
b0000000000000000101011010000111111110000100011011110010000100110 #
b0000000000000000101001100100011001101110100100010000000011000011 $
#1715
0!
#1720
1!
0"
b0000000000000000100010100111101011010000100111010010011000110110 #
b0000000000000000100010010111001111011110010010110011000001011100 $
#1725
0!
#1730
1!
0"
b0000000000000001101100011000010010001011110011101001001110110101 #
b0000000000000001101100000100010100000100000010010010111111000011 $
#1735
0!
#1740
1!
0"
b0000000000000000101101011001110101000100001010111011000110110101 #
b0000000000000000101101011001110101000100001010111011000110110101 $
#1745
0!
#1750
1!
0"
b0000000000000000110100001100010001111110010001000100010010100010 #
b0000000000000000110010011100000010110101110100011100000001001010 $
#1755
0!
#1760
1!
0"
b0000000000000000100100100011101100000011111100101001101001000001 #
b0000000000000000100100001111100000100101111110111111001000011001 $
#1765
0!
#1770
1!
0"
b0000000000000000101000111000001110111101000110000110111100100110 #
b0000000000000000101000110001010000011101010100010000111111100000 $
#1775
0!
#1780
1!
0"
b0000000000000000100111101111110000001111101101000000100111111111 #
b0000000000000000100111100100101001000010111101101000110110111111 $
#1785
0!
#1790
1!
0"
b0000000000000000111101010101001011010010000011101001000100001011 #
b0000000000000000111011100101001011100011011011110111001101001011 $
#1795
0!
#1800
1!
0"
b0000000000000001111111001001000010100011010100000010110000001101 #
b0000000000000001111110001010000000010000111100001000010011010111 $
#1805
0!
#1810
1!
0"
b0000000000000000011101001110110011000111011000110101110001100100 #
b0000000000000000011100000011000010001011011010011001001010111110 $
#1815
0!
#1820
1!
0"
b0000000000000001100110010001010100011000111001101110100100100001 #
b0000000000000001100101001000110101010010010110101001100111110100 $
#1825
0!
#1830
1!
0"
b0000000000000000010111001110101010000001101101110111111100101100 #
b0000000000000000010111001001110110011001010001111001000000010010 $
#1835
0!
#1840
1!
0"
b0000000000000001010100010110011010111001100000010010100100010100 #
b0000000000000001010011001010000111110010110111101101100000000110 $
#1845
0!
#1850
1!
0"
b0000000000000000001000001100110010010011101001111110110111010101 #
b0000000000000000000111110101001011010010010100101000001110001000 $
#1855
0!
#1860
1!
0"
b0000000000000000100010110110100111101111010010010100111101111000 #
b0000000000000000100010100011111001111111100010011111001011101001 $
#1865
0!
#1870
1!
0"
b0000000000000001000011110101000111001101010101110001100000110111 #
b0000000000000001000010100001101111001111111000010111010010111110 $
#1875
0!
#1880
1!
0"
b0000000000000000110101011010010001001110000000001000101101000000 #
b0000000000000000110100111010010010011100010111011000001111111011 $
#1885
0!
#1890
1!
0"
0%
#1895
0!
#1900
1!
0"
1(
#1905
0!
#1910
1!
0"
0(
b01 +
#1915
0!
#1920
1!
0"
#1925
0!
#1930
1!
0"
#1935
0!
#1940
1!
0"
#1945
0!
#1950
1!
0"
#1955
0!
#1960
1!
0"
#1965
0!
#1970
1!
0"
#1975
0!
#1980
1!
0"
#1985
0!
#1990
1!
0"
#1995
0!
#2000
1!
0"
#2005
0!
#2010
1!
0"
#2015
0!
#2020
1!
0"
#2025
0!
#2030
1!
0"
#2035
0!
#2040
1!
0"
#2045
0!
#2050
1!
0"
#2055
0!
#2060
1!
0"
#2065
0!
#2070
1!
0"
#2075
0!
#2080
1!
0"
#2085
0!
#2090
1!
0"
#2095
0!
#2100
1!
0"
#2105
0!
#2110
1!
0"
#2115
0!
#2120
1!
0"
#2125
0!
#2130
1!
0"
#2135
0!
#2140
1!
0"
#2145
0!
#2150
1!
0"
#2155
0!
#2160
1!
0"
#2165
0!
#2170
1!
0"
#2175
0!
#2180
1!
0"
#2185
0!
#2190
1!
0"
#2195
0!
#2200
1!
0"
#2205
0!
#2210
1!
0"
#2215
0!
#2220
1!
0"
#2225
0!
#2230
1!
0"
#2235
0!
#2240
1!
0"
#2245
0!
#2250
1!
0"
#2255
0!
#2260
1!
0"
#2265
0!
#2270
1!
0"
#2275
0!
#2280
1!
0"
#2285
0!
#2290
1!
0"
#2295
0!
#2300
1!
0"
#2305
0!
#2310
1!
0"
#2315
0!
#2320
1!
0"
#2325
0!
#2330
1!
0"
#2335
0!
#2340
1!
0"
#2345
0!
#2350
1!
0"
#2355
0!
#2360
1!
0"
#2365
0!
#2370
1!
0"
#2375
0!
#2380
1!
0"
#2385
0!
#2390
1!
0"
#2395
0!
#2400
1!
0"
#2405
0!
#2410
1!
0"
#2415
0!
#2420
1!
0"
#2425
0!
#2430
1!
0"
#2435
0!
#2440
1!
0"
#2445
0!
#2450
1!
0"
#2455
0!
#2460
1!
0"
#2465
0!
#2470
1!
0"
#2475
0!
#2480
1!
0"
#2485
0!
#2490
1!
0"
#2495
0!
#2500
1!
0"
#2505
0!
#2510
1!
0"
#2515
0!
#2520
1!
0"
#2525
0!
#2530
1!
0"
#2535
0!
#2540
1!
0"
#2545
0!
#2550
1!
0"
#2555
0!
#2560
1!
0"
#2565
0!
#2570
1!
0"
#2575
0!
#2580
1!
0"
#2585
0!
#2590
1!
0"
#2595
0!
#2600
1!
0"
#2605
0!
#2610
1!
0"
#2615
0!
#2620
1!
0"
#2625
0!
#2630
1!
0"
#2635
0!
#2640
1!
0"
#2645
0!
#2650
1!
0"
#2655
0!
#2660
1!
0"
#2665
0!
#2670
1!
0"
#2675
0!
#2680
1!
0"
#2685
0!
#2690
1!
0"
#2695
0!
#2700
1!
0"
#2705
0!
#2710
1!
0"
#2715
0!
#2720
1!
0"
#2725
0!
#2730
1!
0"
#2735
0!
#2740
1!
0"
#2745
0!
#2750
1!
0"
#2755
0!
#2760
1!
0"
#2765
0!
#2770
1!
0"
#2775
0!
#2780
1!
0"
#2785
0!
#2790
1!
0"
#2795
0!
#2800
1!
0"
#2805
0!
#2810
1!
0"
#2815
0!
#2820
1!
0"
#2825
0!
#2830
1!
0"
#2835
0!
#2840
1!
0"
#2845
0!
#2850
1!
0"
